[
    {
      "name": "Телевізор Samsung",
      "price": "28999",
      "url": "./img/1.jpg",
      "vendorCode": "591205",
      "color": "black"
    },
    {
      "name": "Телевізор LG",
      "price": "14699",
      "url": "./img/2.jpg",
      "vendorCode": "942031",
      "color": "grey"
    },
    {
      "name": "Телевізор Samsung",
      "price": "9699",
      "url": "./img/3.jpg",
      "vendorCode": "394088",
      "color": "black"
    },
    {
      "name": "Вентилятор УСБ",
      "price": "1488",
      "url": "./img/7.jpg",
      "vendorCode": "394088",
      "color": "black/white"
     },
     {
      "name": "Вентилятор не УСБ",
      "price": "999999999",
      "url": "./img/8.jpg",
      "vendorCode": "394088",
      "color": "black"
     }
  ]
  